---
layout: layout.njk
title: 11ty serial experiments
---

{% container %}

{% card "img/responsive-layout-grid.svg", "responsive-layout-grid", "Responsive layout grid", "/responsive-layout-grid/" %}

{% card "img/in-progress.svg", "picture", "Picture", "/picture/" %}

{% card "img/card.svg", "card", "card", "/card/" %}



{% card "img/typography.svg", "typography", "typography (planned)", "/404/" %}

{% card "img/color-system.svg", "color-system", "color-system (planned)", "/404/" %}

{% card "img/ui-kit.svg", "ui-kit", "ui-kit (planned)", "/404/" %}

{% card "img/basic-markdown-syntax.svg", "basic-markdown-syntax", "basic-markdown-syntax (planned)", "/404/" %}

{% card "img/assets.svg", "assets", "assets (planned)", "/404/" %}

{% card "img/effects.svg", "effects", "effects (planned)", "/404/" %}



{% card "img/skip-to-main-content.svg", "skip-to-main-content", "skip-to-main-content (planned)", "/404/" %}

{% card "img/table-of-content.svg", "table-of-content", "table-of-content (planned)", "/404/" %}

{% card "img/heading-link.svg", "heading-link", "heading-link (planned)", "/404/" %}

{% card "img/return-to-toc.svg", "return-to-toc", "return-to-toc (planned)", "/404/" %}

{% card "img/in-progress.svg", "Change Url Hash on Scrolling", "Change Url Hash on Scrolling (planned)", "/404/" %}

{% card "img/link-highlight.svg", "link-highlight", "link-highlight (planned)", "/404/" %}

{% card "img/footnote.svg", "footnote", "footnote (planned)", "/404/" %}



{% card "img/header.svg", "header", "header (planned)", "/404/" %}

{% card "img/hero-sections.svg", "hero-section", "hero-section (planned)", "/404/" %}

{% card "img/product.svg", "product", "product (planned)", "/404/" %}

{% card "img/testimonials.svg", "testimonials", "testimonials (planned)", "/404/" %}

{% card "img/team.svg", "team", "team (planned)", "/404/" %}

{% card "img/contact.svg", "contact", "contact (planned)", "/404/" %}

{% card "img/sidebar.svg", "sidebar", "sidebar (planned)", "/404/" %}

{% card "img/footer.svg", "footer", "footer (planned)", "/404/" %}



{% card "img/accordion.svg", "accordion", "accordion (planned)", "/404/" %}

{% card "img/breadcrumb.svg", "breadcrumb", "breadcrumb (planned)", "/404/" %}

{% card "img/carousel.svg", "carousel", "carousel (planned)", "/404/" %}

{% card "img/data-grid.svg", "data-grid", "data-grid (planned)", "/404/" %}

{% card "img/dialog.svg", "dialog", "dialog (planned)", "/404/" %}

{% card "img/disclosure.svg", "disclosure", "disclosure (planned)", "/404/" %}

{% card "img/feed.svg", "feed", "feed (planned)", "/404/" %}

{% card "img/listbox.svg", "listbox", "listbox (planned)", "/404/" %}

{% card "img/scalable-image.svg", "scalable-image", "scalable-image (planned)", "/404/" %}

{% card "img/table.svg", "table", "table (planned)", "/404/" %}

{% card "img/tabs.svg", "tabs", "tabs (planned)", "/404/" %}



{% card "img/in-progress.svg", "all components", "all components (planned)", "/404/" %}

{% card "img/landing.svg", "landing", "landing (planned)", "/404/" %}

{% card "img/about.svg", "about", "about (planned)", "/404/" %}

{% card "img/pricing.svg", "pricing", "pricing (planned)", "/404/" %}



{% card "img/sitemap.svg", "sitemap", "sitemap (planned)", "/404/" %}

{% card "img/404.svg", "404", "404 Not Found (planned)", "/404/" %}

{% card "img/in-progress.svg", "Manual", "Manual (planned)", "/404/" %}

{% endContainer %}